[
  {
      "name" : "dad",
      "head" : "familySelection_1dad",
      "givesState" : "begging",
      "x" : 0.3,
      "y" : 2.0,
      "toiletX" : -0.13,
      "toiletY" : 0.0,
      "startRoom" : "parentsRoom",
      "states" : {
          "idle" : {
              "locations" : {
                  "livingRoom" : "dad_standing"
              },
              "texture" : "dad_standing"
          },
          "pickedUp" : {
              "texture" : "dad_pickup"
          },
          "peeing" : {
              "texture" : "dad_toilet",
              "sound" : "pee.aifc"
          },
          "bathing" : {
              "texture" : "dad_tub"
          },
          "laying" : {
              "locations" : {
                  "livingRoom" : "dad_sleep",
                  "parentsRoom" : "dad_bed"
              },
              "sound" : "snore.aifc",
              "texture" : "dad_sleep"
          },
          "sitting" : {
              "texture" : "dad_sit"
          }
      }
  },
  {
    "name" : "mom_standing",
    "head" : "familySelection_2mom",
    "givesState" : "begging",
    "x" : 1.0,
    "y" : 1.0,
    "toiletX" : -0.1,
    "toiletY" : 0.1,
    "startRoom" : "diningRoom",
    "states" : {
        "idle" : {
            "locations" : {
                "bathroom" : "mom_bathroomStanding",
                "kitchen" : "mom_kitchenStanding",
                "backyard" : "mom_outsideStanding",
            },
            "texture" : "mom_standing"
        },
        "pickedUp" : {
            "locations" : {
                "bathroom" : "mom_bathroomPickup",
                "kitchen" : "mom_kitchenPickup",
                "backyard" : "mom_outsidePickup",
            },
            "texture" : "mom_pickup"
        },
        "peeing" : {
            "texture" : "mom_toilet"
        },
        "bathing" : {
            "texture" : "mom_tub"
        },
        "sitting" : {
            "texture" : "mom_sit"
        },
    }
  },
  {
    "name" : "girl_standing",
    "head" : "familySelection_3girl",
    "x" : 0.3,
    "y" : 1.0,
    "toiletX" : 0.0,
    "toiletY" : 0.25,
    "startRoom" : "livingRoom",
    "states" : {
        "idle" : {
            "texture" : "girl_standing"
        },
        "pickedUp" : {
            "texture" : "girl_pickup"
        },
        "peeing" : {
            "texture" : "girl_toilet",
            "sound" : "pee.aifc"
        },
        "bathing" : {
            "texture" : "girl_tub"
        },
        "laying" : {
            "texture" : "girl_sleep"
        },
        "swinging" : {
            "texture" : "girl_swing"
        },
        "sitting" : {
            "texture" : "girl_eat"
        },
        "timeout" : {
            "texture" : "girl_timeout"
        }
    }
  },
  {
    "name" : "baby_pickMeUp6",
    "head" : "familySelection_4baby",
    "x" : 1.25,
    "y" : 2.0,
    "toiletX" : 0.0,
    "toiletY" : 0.0,
    "startRoom" : "kidsRoom",
    "states" : {
        "idle" : {
            "locations" : {
                "kidsRoom" : "sleepy",
                "parentsRoom" : "sleepy",
                "bathroom" : "fill",
                "livingRoom" : "tantrum",
                "basementLeft" : "tantrum",
                "basementRight" : "fill"
            },
            "animation" : "walk",
            "texture" : "baby_crawl1",
        },
        "bathing" : {
            "texture" : "baby_tub"
        },
        "laying" : {
            "texture" : "baby_sleep"
        },
        "pickedUp" : {
            "texture" : "baby_pickup"
        },
        "begging" : {
            "animation" : "begging",
            "texture" : "baby_pickMeUp6"
        },
        "pullup" : {
            "animation" : "pullup",
            "texture" : "baby_pullUp1"
        }
    },
    "animations" : {
        "sleepy" : {
            "frames" : ["baby_sleepy1", "baby_sleepy2", "baby_sleepy3", "baby_sleepy4", "baby_sleepy5", "baby_sleepy6", "baby_sleepy7", "baby_sleepy8", "baby_sleepy9"],
            "speed" : 0,
            "startDirection" : 1,
            "repeats" : false
        },
        "pullup" : {
          "frames" : ["baby_pullUp1", "baby_pullUp2", "baby_pullUp3", "baby_pullUp4", "baby_pullUp5", "baby_pullUp6", "baby_pullUp7"],
          "speed" : 0,
          "startDirection" : 1,
          "repeats" : false
        },
        "fill" : {
          "frames" : ["baby_diaper1", "baby_diaper2", "baby_diaper3", "baby_diaper4"],
          "speed" : 150,
          "startDirection" : -1,
          "repeats" : true
        },
        "tantrum" : {
          "frames" : ["baby_tantrum1", "baby_tantrum2", "baby_tantrum3", "baby_tantrum4", "baby_tantrum5", "baby_tantrum6", "baby_tantrum7"],
          "speed" : 0,
          "startDirection" : 1,
          "repeats" : true
        },
        "walk" : {
          "frames" : ["baby_crawl1", "baby_crawl2", "baby_crawl3", "baby_crawl4"],
          "speed" : 150,
          "startDirection" : 1,
          "repeats" : true
        },
        "begging" : {
          "frames" : ["baby_pickMeUp1", "baby_pickMeUp2", "baby_pickMeUp3", "baby_pickMeUp4", "baby_pickMeUp5"],
          "speed" : 0,
          "startDirection" : 1,
          "repeats" : false
        }
    }
  },
  {
    "name" : "dog",
    "head" : "familySelection_5dog",
    "x" : 2.52,
    "y" : 1.0,
    "toiletX" : 0.0,
    "toiletY" : 0.0,
    "startRoom" : "backyard",
    "states" : {
        "idle" : {
            "animation" : "walk",
            "texture" : "dog-walk1",
        },
        "sleeping" : {
            "texture" : "dog-sleeping1"
        },
        "pickedUp" : {
            "texture" : "dog-pickedUp",
            "sound" : "dog_bark.aifc"
        },
        "begging" : {
            "animation" : "begging",
            "texture" : "dog-beg6"
        },
        "eating" : {
            "animation" : "eating",
            "texture" : "dog-eating1"
        }
    },
    "animations" : {
        "walk" : {
            "frames" : ["dog-walk2", "dog-walk3", "dog-walk4", "dog-walk5"],
            "speed" : 150,
            "startDirection" : 1,
            "repeats" : true
        },
        "begging" : {
            "frames" : ["dog-beg1", "dog-beg2", "dog-beg3", "dog-beg4", "dog-beg5", "dog-beg6"],
            "speed" : 0,
            "startDirection" : 0,
            "repeats" : true
        },
        "eating" : {
            "frames" : ["dog-eating1", "dog-eating2", "dog-eating3", "dog-eating4", "dog-eating5", "dog-eating6"],
            "speed" : 0,
            "startDirection" : 0,
            "repeats" : true
        }
    }
  },
]
